…
t_test_results
```

    ## # A tibble: 5,000 × 4
    ## # Groups:   mu [1]
    ##       mu  iter mu_hat p.value
    ##    <dbl> <int>  <dbl>   <dbl>
    ##  1     0     1 -0.424  0.642 
    ##  2     0     2  1.34   0.220 
    ##  3     0     3 -1.85   0.0246
    ##  4     0     4 -0.759  0.373 
    ##  5     0     5 -1.03   0.259 
    ##  6     0     6  0.502  0.521 
    ##  7     0     7  0.442  0.573 
    ##  8     0     8 -0.539  0.593 
    ##  9     0     9 -0.293  0.739 
    ## 10     0    10  0.955  0.271 
    ## # ℹ 4,990 more rows
…
``` r
prop_test_all =
  map_df(homicides_df$city_state, city_prop_test)
```

    ## Warning in prop.test(x = pull(city_chosen, unsolved_homicides), n =
    ## pull(city_chosen, : Chi-squared approximation may be incorrect

``` r
prop_test_all 
```

    ## # A tibble: 51 × 4
    ##    city_state      estimate conf.low conf.high
    ##    <chr>              <dbl>    <dbl>     <dbl>
    ##  1 Albuquerque, NM    0.386    0.337     0.438
    ##  2 Atlanta, GA        0.383    0.353     0.415
    ##  3 Baltimore, MD      0.646    0.628     0.663
    ##  4 Baton Rouge, LA    0.462    0.414     0.511
    ##  5 Birmingham, AL     0.434    0.399     0.469
    ##  6 Boston, MA         0.505    0.465     0.545
    ##  7 Buffalo, NY        0.612    0.569     0.654
    ##  8 Charlotte, NC      0.300    0.266     0.336
    ##  9 Chicago, IL        0.736    0.724     0.747
    ## 10 Cincinnati, OH     0.445    0.408     0.483
    ## # ℹ 41 more rows
…
